{
  "hosting": {
    "public": "public",
    "rewrites": [{
      "source": "**",
      "function": "app"
    }],
    "ignore": [
      "firebase.json",
      "**/.*",
      "**/node_modules/**"
    ]
  },
  "database": {
    "rules": "database.rules.json"
  },
  "functions": {
    
  },
  "storage": {
    "rules": "storage.rules"
  }
}
